module gitlab.com/MicahParks/craigslist-vehicles

go 1.14

require (
	fyne.io/fyne v1.2.3
	github.com/gocolly/colly/v2 v2.0.1
	go.mongodb.org/mongo-driver v1.3.1
	golang.org/x/crypto v0.0.0-20190605123033-f99c8df09eb5
)
